<?xml version="1.0" encoding="iso-8859-1"?>
<!-- Generator: Adobe Illustrator 18.1.1, SVG Export Plug-In . SVG Version: 6.00 Build 0)  -->
<svg version="1.1" id="Capa_1" xmlns="http://www.w3.org/2000/svg" xmlns:xlink="http://www.w3.org/1999/xlink" x="0px" y="0px"
	 viewBox="0 0 485 485" style="enable-background:new 0 0 485 485;" xml:space="preserve">
<g>
	<g>
		<path style="fill:#010002;" d="M470,64l8-6l-20-23l-7,6c-12,10.667-20.5,18.667-25.5,24S415.333,77.333,410,86s-9.333,18-12,28
			c-6.673,24-9.339,55-8,93c0.667,32.667,4.333,57.333,11,74l3,8c14,34.667,21,65.333,21,92c0,48.667-19.667,73-59,73
			c-35.333,0-54.333-23.333-57-70c-0.667-13.333,3-37.667,11-73c7.336-30.667,11.669-54.333,13-71c3.331-28-0.336-47.667-11-59
			c-10-11.333-27.667-17-53-17h-6V22c0-6-2-11.167-6-15.5S248,0,242,0H31c-6,0-11.5,2.167-16.5,6.5S7,16,7,22v450h256V195h6
			c16,0,26,2,30,6c4.667,5.333,6,17,4,35c-2,16-6.333,38.667-13,68c-8.669,38-12.336,65.333-11,82c1.334,31.333,9.668,55.667,25,73
			c15.333,17.333,36,26,62,26c28,0,49.833-9.167,65.5-27.5S455,413.667,455,381c0-30.667-7.667-65.333-23-104l-3-8
			c-4.668-12-7.335-31-8-57c13.333-0.667,22.333-1,27-1c11.333,0,18.333-6.333,21-19c0.667-4,0.833-6.833,0.5-8.5s-0.667-5.333-1-11
			S468,162,468,158v-5c0-21.333-1.5-36.833-4.5-46.5S455.667,89,449,83c2-2,5.5-5.167,10.5-9.5S468,66,470,64z M233,175H38V41h195
			V175z M419,181c0.667-21.333,3.333-41,8-59c0-1.339,0.333-3.672,1-7c0.667-3.339,1.333-5.672,2-7c5.333,4.667,8,19.667,8,45v5
			c0,2.667,0.333,6.667,1,12s1,9,1,11H419z"/>
	</g>
</g>
<g>
</g>
<g>
</g>
<g>
</g>
<g>
</g>
<g>
</g>
<g>
</g>
<g>
</g>
<g>
</g>
<g>
</g>
<g>
</g>
<g>
</g>
<g>
</g>
<g>
</g>
<g>
</g>
<g>
</g>
</svg>
